<?xml version="1.0" encoding="UTF-8"?>
<svg width="132px" height="134px" viewBox="0 0 132 134" version="1.1" xmlns="http://www.w3.org/2000/svg" xmlns:xlink="http://www.w3.org/1999/xlink">
    <!-- Generator: Sketch 51.3 (57544) - http://www.bohemiancoding.com/sketch -->
    <title>Path 6</title>
    <desc>Created with Sketch.</desc>
    <defs></defs>
    <g id="Page-1" stroke="none" stroke-width="1" fill="none" fill-rule="evenodd">
        <g id="9-Element-répétitif" transform="translate(-423.000000, -380.000000)" fill="#44578F" fill-rule="nonzero">
            <path d="M436.425943,397.12794 C418.236929,436.155962 421.420234,466.161724 429.107213,482.086956 C436.794193,498.012187 464.279872,525.429539 509.563119,507.607949 C554.846366,489.786359 573.463946,415.433683 529.943918,406.055242 C486.42389,396.6768 454.614957,358.099918 436.425943,397.12794 Z" id="Path-6"></path>
        </g>
    </g>
</svg>