<?xml version="1.0" encoding="UTF-8"?>
<svg width="124px" height="153px" viewBox="0 0 124 153" version="1.1" xmlns="http://www.w3.org/2000/svg" xmlns:xlink="http://www.w3.org/1999/xlink">
    <!-- Generator: Sketch 51.3 (57544) - http://www.bohemiancoding.com/sketch -->
    <title>Path 4</title>
    <desc>Created with Sketch.</desc>
    <defs></defs>
    <g id="Page-1" stroke="none" stroke-width="1" fill="none" fill-rule="evenodd">
        <g id="9-Element-répétitif" transform="translate(-300.000000, -252.000000)" fill="#F7DAC8" fill-rule="nonzero">
            <path d="M322.951519,252 C356.238306,252 384.874684,262.766941 391.84565,276.039567 C398.816615,289.312194 367.31944,307.071138 367.31944,322.030369 C367.31944,336.989599 423.278058,341.831628 423.278058,359.922085 C423.278058,378.012542 399.767666,404.702984 360.103042,404.702984 C320.438417,404.702984 337.82054,353.609042 314.612804,346.695434 C291.405067,339.781826 301.688337,322.030369 306.200211,307.596188 C310.712085,293.162008 289.664732,252 322.951519,252 Z" id="Path-4"></path>
        </g>
    </g>
</svg>