<?xml version="1.0" encoding="UTF-8"?>
<svg width="103px" height="112px" viewBox="0 0 103 112" version="1.1" xmlns="http://www.w3.org/2000/svg" xmlns:xlink="http://www.w3.org/1999/xlink">
    <!-- Generator: Sketch 51.3 (57544) - http://www.bohemiancoding.com/sketch -->
    <title>Path 9</title>
    <desc>Created with Sketch.</desc>
    <defs></defs>
    <g id="Page-1" stroke="none" stroke-width="1" fill="none" fill-rule="evenodd">
        <g id="9-Element-répétitif" transform="translate(-395.000000, -169.000000)" fill="#F6B1A2" fill-rule="nonzero">
            <path d="M421.562312,179.539187 C402.393382,200.617561 374.942415,254.671718 417.464943,273.044861 C459.987471,291.418004 497.900106,274.614736 497.900106,254.901593 C497.900106,241.759497 485.023156,216.638695 459.269255,179.539187 C446.91058,165.486938 434.341599,165.486938 421.562312,179.539187 Z" id="Path-9"></path>
        </g>
    </g>
</svg>