<?xml version="1.0" encoding="UTF-8"?>
<svg width="75px" height="155px" viewBox="0 0 75 155" version="1.1" xmlns="http://www.w3.org/2000/svg" xmlns:xlink="http://www.w3.org/1999/xlink">
    <!-- Generator: Sketch 51.3 (57544) - http://www.bohemiancoding.com/sketch -->
    <title>Path 20</title>
    <desc>Created with Sketch.</desc>
    <defs></defs>
    <g id="Page-1" stroke="none" stroke-width="1" fill="none" fill-rule="evenodd">
        <g id="9-Element-répétitif" transform="translate(-601.000000, -225.000000)" fill="#F7DAC8" fill-rule="nonzero">
            <path d="M602.237013,248.140985 C596.512812,270.348053 612.744642,309.819935 608.629915,338.162431 C604.515188,366.504927 643.854697,397.427005 666.032853,367.794718 C688.211008,338.162431 666.032853,286.591862 666.032853,248.140985 C666.032853,209.690108 607.961213,225.933917 602.237013,248.140985 Z" id="Path-20"></path>
        </g>
    </g>
</svg>