<?xml version="1.0" encoding="UTF-8"?>
<svg width="146px" height="99px" viewBox="0 0 146 99" version="1.1" xmlns="http://www.w3.org/2000/svg" xmlns:xlink="http://www.w3.org/1999/xlink">
    <!-- Generator: Sketch 51.3 (57544) - http://www.bohemiancoding.com/sketch -->
    <title>Path 16</title>
    <desc>Created with Sketch.</desc>
    <defs></defs>
    <g id="Page-1" stroke="none" stroke-width="1" fill="none" fill-rule="evenodd">
        <g id="9-Element-répétitif" transform="translate(-431.000000, -261.000000)" fill="#F8887D" fill-rule="nonzero">
            <path d="M448.320133,305.215405 C468.918349,305.215405 499.252452,307.887277 510.396447,285.239552 C521.540441,262.591827 543.696208,256.251228 557.457691,264.394053 C571.219174,272.536877 594.02628,325.963732 552.211363,348.218099 C510.396447,370.472467 465.945934,355.436761 445.029647,342.697888 C424.113359,329.959016 427.721917,305.215405 448.320133,305.215405 Z" id="Path-16"></path>
        </g>
    </g>
</svg>