<?xml version="1.0" encoding="UTF-8" standalone="no"?>
<svg
   xmlns:dc="http://purl.org/dc/elements/1.1/"
   xmlns:cc="http://creativecommons.org/ns#"
   xmlns:rdf="http://www.w3.org/1999/02/22-rdf-syntax-ns#"
   xmlns:svg="http://www.w3.org/2000/svg"
   xmlns="http://www.w3.org/2000/svg"
   viewBox="0 0 192 106.66667"
   height="106.66667"
   width="192"
   xml:space="preserve"
   id="svg2"
   version="1.1"><metadata
     id="metadata8"><rdf:RDF><cc:Work
         rdf:about=""><dc:format>image/svg+xml</dc:format><dc:type
           rdf:resource="http://purl.org/dc/dcmitype/StillImage" /></cc:Work></rdf:RDF></metadata><defs
     id="defs6"><clipPath
       id="clipPath22"
       clipPathUnits="userSpaceOnUse"><path
         id="path20"
         d="M 0,80 H 144 V 0 H 0 Z" /></clipPath><clipPath
       id="clipPath54"
       clipPathUnits="userSpaceOnUse"><path
         id="path52"
         d="M 0,0 H 144 V 80 H 0 Z" /></clipPath></defs><g
     transform="matrix(1.3333333,0,0,-1.3333333,0,106.66667)"
     id="g10"><g
       transform="translate(108.1719,13.2812)"
       id="g12"><path
         id="path14"
         style="fill:#010101;fill-opacity:1;fill-rule:nonzero;stroke:none"
         d="M 0,0 V -1.266 H 2.453 V -2.47 H 0 V -4.75 H -1.547 V 1.187 H 3.078 L 3.078,0 Z" /></g><g
       id="g16"><g
         clip-path="url(#clipPath22)"
         id="g18"><g
           transform="translate(114.6563,13.125)"
           id="g24"><path
             id="path26"
             style="fill:#010101;fill-opacity:1;fill-rule:nonzero;stroke:none"
             d="M 0,0 C 0.207,0 0.367,-0.039 0.484,-0.109 L 0.328,-1.406 c -0.062,0.039 -0.148,0.07 -0.25,0.093 -0.094,0.032 -0.199,0.047 -0.312,0.047 -0.293,0 -0.539,-0.093 -0.734,-0.281 -0.188,-0.18 -0.282,-0.437 -0.282,-0.781 v -2.266 h -1.531 v 4.5 h 1.359 l 0.063,-0.969 c 0.101,0.344 0.269,0.602 0.5,0.782 C -0.633,-0.094 -0.343,0 0,0" /></g><g
           transform="translate(120.0352,9.4062)"
           id="g28"><path
             id="path30"
             style="fill:#010101;fill-opacity:1;fill-rule:nonzero;stroke:none"
             d="M 0,0 C 0.113,0 0.207,0.008 0.281,0.03 L 0.172,-0.828 c -0.18,-0.094 -0.383,-0.142 -0.609,-0.142 -0.657,0 -1.047,0.236 -1.172,0.704 -0.274,-0.468 -0.805,-0.704 -1.594,-0.704 -0.449,0 -0.797,0.095 -1.047,0.283 -0.242,0.195 -0.359,0.476 -0.359,0.842 0,0.384 0.132,0.697 0.406,0.939 0.281,0.238 0.734,0.422 1.359,0.547 l 1.016,0.187 V 2 C -1.828,2.195 -1.887,2.352 -2,2.469 -2.117,2.594 -2.273,2.655 -2.469,2.655 -2.699,2.655 -2.887,2.602 -3.031,2.5 -3.18,2.395 -3.273,2.219 -3.313,1.969 l -1.234,0.359 c 0.07,0.438 0.285,0.774 0.641,1.016 0.351,0.25 0.832,0.375 1.437,0.375 0.696,0 1.227,-0.149 1.594,-0.439 C -0.5,2.988 -0.312,2.555 -0.312,1.984 V 0.344 C -0.312,0.113 -0.211,0 0,0 m -2.656,0.03 c 0.218,0 0.41,0.056 0.578,0.173 0.164,0.113 0.25,0.266 0.25,0.452 V 1.047 L -2.563,0.875 C -2.75,0.832 -2.887,0.773 -2.969,0.703 -3.055,0.629 -3.094,0.53 -3.094,0.405 c 0,-0.125 0.035,-0.218 0.11,-0.28 0.082,-0.063 0.191,-0.095 0.328,-0.095" /></g><g
           transform="translate(123.8633,13.125)"
           id="g32"><path
             id="path34"
             style="fill:#010101;fill-opacity:1;fill-rule:nonzero;stroke:none"
             d="m 0,0 c 0.477,0 0.859,-0.141 1.141,-0.422 0.281,-0.273 0.421,-0.664 0.421,-1.172 v -3 H 0.031 v 2.578 c 0,0.301 -0.058,0.516 -0.172,0.641 -0.117,0.133 -0.273,0.203 -0.468,0.203 -0.243,0 -0.438,-0.09 -0.594,-0.266 -0.149,-0.167 -0.219,-0.429 -0.219,-0.781 v -2.375 h -1.531 v 4.5 h 1.375 l 0.047,-0.859 c 0.133,0.312 0.332,0.547 0.594,0.703 C -0.668,-0.086 -0.355,0 0,0" /></g><g
           transform="translate(128.6406,13.125)"
           id="g36"><path
             id="path38"
             style="fill:#010101;fill-opacity:1;fill-rule:nonzero;stroke:none"
             d="M 0,0 C 0.676,0 1.187,-0.133 1.531,-0.391 1.875,-0.652 2.086,-0.992 2.173,-1.406 L 0.75,-1.859 c -0.063,0.507 -0.297,0.765 -0.702,0.765 -0.595,0 -0.892,-0.422 -0.892,-1.265 0,-0.825 0.297,-1.235 0.892,-1.235 0.425,0 0.675,0.242 0.75,0.735 l 1.375,-0.454 c -0.064,-0.406 -0.282,-0.742 -0.657,-1 -0.368,-0.25 -0.852,-0.375 -1.454,-0.375 -0.781,0 -1.386,0.204 -1.812,0.61 -0.418,0.414 -0.625,0.992 -0.625,1.734 0,0.739 0.207,1.313 0.625,1.719 C -1.336,-0.211 -0.75,0 0,0" /></g><g
           transform="translate(136.0078,10.8437)"
           id="g40"><path
             id="path42"
             style="fill:#010101;fill-opacity:1;fill-rule:nonzero;stroke:none"
             d="m 0,0 c 0,-0.211 -0.016,-0.375 -0.047,-0.5 h -3.078 c 0.051,-0.282 0.156,-0.492 0.312,-0.625 0.157,-0.137 0.369,-0.203 0.641,-0.203 0.219,0 0.395,0.039 0.531,0.125 0.145,0.082 0.243,0.207 0.297,0.375 l 1.235,-0.391 c -0.125,-0.386 -0.371,-0.683 -0.735,-0.89 -0.355,-0.2 -0.797,-0.298 -1.328,-0.298 -0.793,0 -1.397,0.204 -1.812,0.61 -0.418,0.414 -0.625,0.992 -0.625,1.735 0,0.738 0.203,1.312 0.609,1.718 0.414,0.414 1,0.625 1.75,0.625 0.719,0 1.27,-0.203 1.656,-0.609 C -0.199,1.273 0,0.718 0,0 m -2.266,1.203 c -0.492,0 -0.777,-0.293 -0.859,-0.875 h 1.688 C -1.512,0.91 -1.789,1.203 -2.266,1.203" /></g><g
           transform="translate(12.5391,19.8047)"
           id="g44"><path
             id="path46"
             style="fill:#010101;fill-opacity:1;fill-rule:nonzero;stroke:none"
             d="m 0,0 v -0.711 h -4.539 v 6.242 h 4.398 V 4.824 H -3.777 V 2.809 h 2.828 V 2.098 H -3.777 V 0 Z" /></g></g></g><g
       id="g48"><g
         clip-path="url(#clipPath54)"
         id="g50"><g
           transform="translate(16.73,23.8242)"
           id="g56"><path
             id="path58"
             style="fill:#010101;fill-opacity:1;fill-rule:nonzero;stroke:none"
             d="m 0,0 -0.152,-0.738 c -0.152,0.082 -0.351,0.125 -0.601,0.125 -0.2,0 -0.399,-0.059 -0.594,-0.176 C -1.539,-0.906 -1.695,-1.082 -1.82,-1.32 -1.945,-1.555 -2.007,-1.84 -2.007,-2.176 V -4.73 H -2.765 V 0 h 0.617 l 0.106,-0.777 c 0.265,0.582 0.769,0.871 1.519,0.871 C -0.296,0.094 -0.121,0.062 0,0" /></g><g
           transform="translate(20.3442,19.9453)"
           id="g60"><path
             id="path62"
             style="fill:#010101;fill-opacity:1;fill-rule:nonzero;stroke:none"
             d="m 0,0 c 0.289,0.191 0.433,0.437 0.433,0.738 v 0.653 l -1.062,-0.2 C -1.055,1.116 -1.371,1.008 -1.578,0.866 -1.789,0.727 -1.895,0.543 -1.895,0.324 c 0,-0.199 0.078,-0.347 0.227,-0.449 0.152,-0.105 0.367,-0.156 0.64,-0.156 0.399,0 0.743,0.094 1.028,0.281 M 1.933,-0.254 1.886,-0.852 C 1.711,-0.914 1.519,-0.945 1.316,-0.945 1.07,-0.945 0.875,-0.891 0.734,-0.785 0.59,-0.676 0.5,-0.496 0.461,-0.246 0.316,-0.465 0.101,-0.637 -0.18,-0.762 c -0.281,-0.122 -0.578,-0.183 -0.887,-0.183 -0.468,0 -0.855,0.109 -1.16,0.328 -0.304,0.215 -0.457,0.531 -0.457,0.941 0,0.36 0.16,0.667 0.477,0.93 0.316,0.262 0.773,0.445 1.379,0.543 L 0.433,2.008 V 2.273 C 0.433,2.586 0.336,2.84 0.14,3.027 -0.059,3.215 -0.328,3.313 -0.68,3.313 -0.992,3.313 -1.27,3.234 -1.5,3.086 -1.731,2.934 -1.91,2.711 -2.035,2.414 L -2.598,2.82 c 0.129,0.352 0.363,0.633 0.707,0.84 0.348,0.211 0.75,0.313 1.211,0.313 0.566,0 1.02,-0.137 1.359,-0.407 0.344,-0.269 0.516,-0.671 0.516,-1.2 V 0.039 c 0,-0.113 0.027,-0.199 0.082,-0.254 0.059,-0.058 0.152,-0.086 0.277,-0.086 0.129,0 0.254,0.016 0.379,0.047" /></g><g
           transform="translate(24.063,19.2695)"
           id="g64"><path
             id="path66"
             style="fill:#010101;fill-opacity:1;fill-rule:nonzero;stroke:none"
             d="m 0,0 c -0.368,0.18 -0.637,0.445 -0.809,0.801 l 0.617,0.426 C -0.086,0.949 0.101,0.738 0.367,0.602 0.636,0.461 0.949,0.395 1.308,0.395 c 0.375,0 0.66,0.062 0.856,0.199 0.195,0.129 0.296,0.297 0.296,0.5 0,0.183 -0.093,0.328 -0.277,0.437 C 2,1.645 1.675,1.738 1.214,1.82 0.757,1.902 0.398,2.004 0.132,2.117 c -0.265,0.117 -0.461,0.27 -0.578,0.446 -0.121,0.179 -0.183,0.402 -0.183,0.667 0,0.258 0.078,0.497 0.23,0.711 0.152,0.211 0.371,0.383 0.652,0.516 0.286,0.125 0.614,0.191 0.989,0.191 0.508,0 0.914,-0.089 1.222,-0.277 C 2.769,4.184 2.992,3.898 3.125,3.516 L 2.476,3.137 C 2.378,3.438 2.222,3.656 2.019,3.789 1.812,3.922 1.554,3.988 1.242,3.988 0.933,3.988 0.671,3.917 0.453,3.777 0.238,3.641 0.132,3.48 0.132,3.297 0.132,3.09 0.226,2.93 0.41,2.813 0.597,2.703 0.933,2.602 1.414,2.52 2.074,2.414 2.539,2.254 2.812,2.039 3.082,1.824 3.218,1.523 3.218,1.129 3.218,0.859 3.14,0.617 2.976,0.406 2.816,0.195 2.585,0.031 2.281,-0.09 1.98,-0.211 1.632,-0.27 1.234,-0.27 0.777,-0.27 0.367,-0.18 0,0" /></g><g
           transform="translate(35.1719,23.7266)"
           id="g68"><path
             id="path70"
             style="fill:#010101;fill-opacity:1;fill-rule:nonzero;stroke:none"
             d="M 0,0 C 0.277,-0.129 0.5,-0.332 0.672,-0.602 0.844,-0.875 0.93,-1.207 0.93,-1.605 V -4.633 H 0.168 v 2.953 c 0,0.41 -0.106,0.715 -0.309,0.914 -0.207,0.196 -0.476,0.297 -0.812,0.297 -0.254,0 -0.485,-0.062 -0.699,-0.187 -0.211,-0.121 -0.383,-0.301 -0.512,-0.539 -0.133,-0.235 -0.195,-0.516 -0.195,-0.845 v -2.593 h -0.758 v 2.953 c 0,0.41 -0.106,0.715 -0.313,0.914 -0.203,0.196 -0.476,0.297 -0.808,0.297 -0.231,0 -0.454,-0.058 -0.668,-0.176 -0.215,-0.117 -0.391,-0.296 -0.532,-0.542 -0.14,-0.247 -0.207,-0.551 -0.207,-0.918 v -2.528 h -0.761 v 4.731 h 0.664 l 0.047,-0.739 c 0.168,0.278 0.382,0.485 0.652,0.625 0.269,0.141 0.559,0.207 0.867,0.207 0.352,0 0.672,-0.078 0.965,-0.234 0.297,-0.16 0.519,-0.391 0.672,-0.691 0.14,0.3 0.367,0.531 0.683,0.691 0.317,0.156 0.637,0.234 0.969,0.234 C -0.57,0.191 -0.274,0.125 0,0" /></g><g
           transform="translate(41.9771,23.8242)"
           id="g72"><path
             id="path74"
             style="fill:#010101;fill-opacity:1;fill-rule:nonzero;stroke:none"
             d="m 0,0 v -4.73 h -0.664 l -0.047,0.722 c -0.317,-0.543 -0.883,-0.816 -1.7,-0.816 -0.515,0 -0.933,0.14 -1.261,0.426 -0.325,0.285 -0.489,0.718 -0.489,1.304 V 0 h 0.762 v -2.895 c 0,-0.46 0.094,-0.785 0.285,-0.98 0.188,-0.191 0.469,-0.285 0.836,-0.285 0.434,0 0.797,0.133 1.086,0.394 0.289,0.266 0.434,0.664 0.434,1.192 l 0,2.574 z" /></g><g
           transform="translate(44.1992,19.2695)"
           id="g76"><path
             id="path78"
             style="fill:#010101;fill-opacity:1;fill-rule:nonzero;stroke:none"
             d="m 0,0 c -0.367,0.18 -0.64,0.445 -0.808,0.801 l 0.617,0.426 C -0.086,0.949 0.102,0.738 0.367,0.602 0.637,0.461 0.949,0.395 1.309,0.395 c 0.375,0 0.66,0.062 0.855,0.199 0.196,0.129 0.293,0.297 0.293,0.5 0,0.183 -0.09,0.328 -0.273,0.437 C 2,1.645 1.676,1.738 1.215,1.82 0.758,1.902 0.395,2.004 0.133,2.117 c -0.269,0.117 -0.461,0.27 -0.582,0.446 -0.121,0.179 -0.18,0.402 -0.18,0.667 0,0.258 0.075,0.497 0.227,0.711 0.152,0.211 0.371,0.383 0.656,0.516 0.285,0.125 0.613,0.191 0.988,0.191 0.508,0 0.914,-0.089 1.223,-0.277 C 2.77,4.184 2.989,3.898 3.125,3.516 L 2.477,3.137 C 2.375,3.438 2.223,3.656 2.016,3.789 1.809,3.922 1.555,3.988 1.242,3.988 0.934,3.988 0.668,3.917 0.453,3.777 0.239,3.641 0.133,3.48 0.133,3.297 0.133,3.09 0.227,2.93 0.41,2.813 0.598,2.703 0.934,2.602 1.414,2.52 2.071,2.414 2.535,2.254 2.809,2.039 3.082,1.824 3.219,1.523 3.219,1.129 3.219,0.859 3.137,0.617 2.977,0.406 2.813,0.195 2.582,0.031 2.281,-0.09 1.981,-0.211 1.633,-0.27 1.231,-0.27 0.778,-0.27 0.364,-0.18 0,0" /></g><g
           transform="translate(58.4771,24.1094)"
           id="g80"><path
             id="path82"
             style="fill:#010101;fill-opacity:1;fill-rule:nonzero;stroke:none"
             d="m 0,0 -0.657,-0.531 c -0.191,0.414 -0.418,0.711 -0.679,0.883 -0.262,0.175 -0.621,0.261 -1.078,0.261 -0.481,0 -0.86,-0.097 -1.137,-0.297 -0.274,-0.199 -0.414,-0.453 -0.414,-0.761 0,-0.203 0.054,-0.371 0.164,-0.504 0.109,-0.129 0.285,-0.246 0.535,-0.344 0.25,-0.098 0.598,-0.184 1.039,-0.262 0.832,-0.136 1.418,-0.343 1.766,-0.621 0.343,-0.277 0.515,-0.664 0.515,-1.156 0,-0.352 -0.097,-0.664 -0.297,-0.93 -0.199,-0.269 -0.484,-0.476 -0.851,-0.625 -0.367,-0.148 -0.793,-0.222 -1.274,-0.222 -0.632,0 -1.171,0.125 -1.617,0.371 -0.449,0.242 -0.789,0.57 -1.023,0.984 l 0.656,0.527 c 0.168,-0.371 0.422,-0.66 0.754,-0.867 0.332,-0.204 0.75,-0.304 1.25,-0.304 0.492,0 0.887,0.089 1.176,0.269 0.293,0.18 0.441,0.434 0.441,0.758 0,0.281 -0.129,0.5 -0.383,0.664 -0.254,0.164 -0.703,0.305 -1.347,0.418 -0.836,0.144 -1.43,0.352 -1.778,0.625 -0.347,0.269 -0.523,0.648 -0.523,1.133 0,0.332 0.098,0.644 0.285,0.926 0.191,0.285 0.461,0.511 0.816,0.675 0.356,0.168 0.766,0.254 1.235,0.254 C -1.305,1.324 -0.497,0.883 0,0" /></g><g
           transform="translate(63.1172,19.4258)"
           id="g84"><path
             id="path86"
             style="fill:#010101;fill-opacity:1;fill-rule:nonzero;stroke:none"
             d="m 0,0 c -0.316,-0.285 -0.726,-0.426 -1.226,-0.426 -0.383,0 -0.7,0.106 -0.946,0.312 -0.242,0.208 -0.367,0.528 -0.375,0.958 v 2.902 h -0.949 v 0.652 h 0.949 v 1.137 l 0.762,0.207 V 4.398 h 1.758 V 3.746 H -1.785 V 0.973 c 0,-0.227 0.063,-0.399 0.195,-0.512 0.129,-0.117 0.301,-0.176 0.516,-0.176 0.305,0 0.574,0.113 0.809,0.348 z" /></g><g
           transform="translate(68.48,23.8242)"
           id="g88"><path
             id="path90"
             style="fill:#010101;fill-opacity:1;fill-rule:nonzero;stroke:none"
             d="m 0,0 v -4.73 h -0.664 l -0.046,0.722 c -0.317,-0.543 -0.883,-0.816 -1.7,-0.816 -0.515,0 -0.933,0.14 -1.261,0.426 -0.325,0.285 -0.489,0.718 -0.489,1.304 V 0 h 0.762 v -2.895 c 0,-0.46 0.094,-0.785 0.285,-0.98 0.188,-0.191 0.469,-0.285 0.836,-0.285 0.434,0 0.797,0.133 1.086,0.394 0.289,0.266 0.434,0.664 0.434,1.192 l 0,2.574 z" /></g><g
           transform="translate(73.3672,20.1367)"
           id="g92"><path
             id="path94"
             style="fill:#010101;fill-opacity:1;fill-rule:nonzero;stroke:none"
             d="M 0,0 C 0.273,0.312 0.406,0.738 0.406,1.266 V 1.379 C 0.406,1.91 0.273,2.332 0,2.648 -0.266,2.961 -0.629,3.121 -1.086,3.121 -1.547,3.121 -1.91,2.957 -2.179,2.633 -2.445,2.309 -2.578,1.871 -2.578,1.324 c 0,-0.551 0.133,-0.988 0.399,-1.312 0.269,-0.324 0.632,-0.485 1.093,-0.485 0.457,0 0.82,0.157 1.086,0.473 M 1.164,5.863 V -1.043 H 0.5 l -0.047,0.824 c -0.141,-0.277 -0.351,-0.5 -0.64,-0.668 -0.29,-0.164 -0.617,-0.25 -0.985,-0.25 -0.664,0 -1.191,0.219 -1.582,0.657 -0.39,0.441 -0.582,1.039 -0.582,1.804 0,0.762 0.192,1.364 0.582,1.801 0.391,0.438 0.918,0.656 1.582,0.656 0.348,0 0.66,-0.074 0.938,-0.226 0.273,-0.153 0.488,-0.356 0.64,-0.606 v 2.914 z" /></g><g
           transform="translate(77.3008,22.8867)"
           id="g96"><path
             id="path98"
             style="fill:#010101;fill-opacity:1;fill-rule:nonzero;stroke:none"
             d="M 0,0 C -0.254,-0.246 -0.41,-0.59 -0.469,-1.039 H 2.41 C 2.359,-0.598 2.215,-0.254 1.973,-0.004 1.73,0.246 1.414,0.371 1.016,0.371 0.598,0.371 0.258,0.246 0,0 m 3.105,-1.711 h -3.582 c 0.043,-0.48 0.204,-0.852 0.477,-1.117 0.277,-0.262 0.633,-0.395 1.07,-0.395 0.348,0 0.637,0.059 0.867,0.176 0.235,0.121 0.391,0.297 0.473,0.524 L 3.047,-2.855 C 2.855,-3.188 2.605,-3.445 2.285,-3.621 1.969,-3.797 1.562,-3.887 1.07,-3.887 c -0.715,0 -1.277,0.219 -1.682,0.653 -0.411,0.437 -0.615,1.039 -0.615,1.808 0,0.77 0.196,1.371 0.582,1.805 0.391,0.437 0.942,0.652 1.661,0.652 0.441,0 0.824,-0.097 1.148,-0.293 0.32,-0.195 0.566,-0.461 0.731,-0.793 0.164,-0.336 0.246,-0.711 0.246,-1.125 0,-0.175 -0.012,-0.355 -0.036,-0.531" /></g><g
           transform="translate(85.6094,23.4531)"
           id="g100"><path
             id="path102"
             style="fill:#010101;fill-opacity:1;fill-rule:nonzero;stroke:none"
             d="m 0,0 c 0.348,-0.305 0.523,-0.75 0.523,-1.332 v -3.027 h -0.761 v 2.761 c 0,0.493 -0.106,0.848 -0.321,1.071 -0.211,0.222 -0.492,0.332 -0.847,0.332 -0.254,0 -0.492,-0.055 -0.711,-0.168 -0.223,-0.11 -0.406,-0.289 -0.547,-0.539 -0.145,-0.246 -0.215,-0.563 -0.215,-0.938 v -2.519 h -0.762 v 4.73 h 0.668 l 0.047,-0.738 c 0.156,0.285 0.375,0.492 0.656,0.629 0.278,0.136 0.59,0.203 0.942,0.203 C -0.793,0.465 -0.348,0.309 0,0" /></g><g
           transform="translate(90.793,19.4258)"
           id="g104"><path
             id="path106"
             style="fill:#010101;fill-opacity:1;fill-rule:nonzero;stroke:none"
             d="m 0,0 c -0.316,-0.285 -0.723,-0.426 -1.223,-0.426 -0.386,0 -0.703,0.106 -0.945,0.312 -0.246,0.208 -0.371,0.528 -0.379,0.958 v 2.902 h -0.945 v 0.652 h 0.945 v 1.137 l 0.762,0.207 V 4.398 h 1.758 V 3.746 H -1.785 V 0.973 c 0,-0.227 0.066,-0.399 0.195,-0.512 0.129,-0.117 0.305,-0.176 0.52,-0.176 0.3,0 0.57,0.113 0.804,0.348 z" /></g><g
           transform="translate(101.7656,19.0938)"
           id="g108"><path
             id="path110"
             style="fill:#010101;fill-opacity:1;fill-rule:nonzero;stroke:none"
             d="M 0,0 H -0.941 L -3.563,4.184 -4.227,5.41 h -0.011 l 0.039,-1 V 0 h -0.723 v 6.242 h 0.942 l 2.613,-4.16 0.676,-1.246 h 0.007 l -0.039,1 v 4.406 l 0.723,0 z" /></g><g
           transform="translate(104.6885,22.8867)"
           id="g112"><path
             id="path114"
             style="fill:#010101;fill-opacity:1;fill-rule:nonzero;stroke:none"
             d="M 0,0 C -0.259,-0.246 -0.411,-0.59 -0.47,-1.039 H 2.409 C 2.358,-0.598 2.214,-0.254 1.972,-0.004 1.729,0.246 1.409,0.371 1.011,0.371 0.593,0.371 0.257,0.246 0,0 m 3.101,-1.711 h -3.579 c 0.043,-0.48 0.204,-0.852 0.478,-1.117 0.276,-0.262 0.632,-0.395 1.069,-0.395 0.348,0 0.637,0.059 0.868,0.176 0.234,0.121 0.39,0.297 0.472,0.524 L 3.046,-2.855 C 2.854,-3.188 2.601,-3.445 2.284,-3.621 1.968,-3.797 1.562,-3.887 1.069,-3.887 c -0.715,0 -1.277,0.219 -1.687,0.653 -0.406,0.437 -0.613,1.039 -0.613,1.808 0,0.77 0.195,1.371 0.585,1.805 0.387,0.437 0.942,0.652 1.657,0.652 0.445,0 0.828,-0.097 1.148,-0.293 C 2.483,0.543 2.729,0.277 2.894,-0.055 3.058,-0.391 3.14,-0.766 3.14,-1.18 3.14,-1.355 3.128,-1.535 3.101,-1.711" /></g><g
           transform="translate(112.2656,19.4258)"
           id="g116"><path
             id="path118"
             style="fill:#010101;fill-opacity:1;fill-rule:nonzero;stroke:none"
             d="m 0,0 c -0.316,-0.285 -0.727,-0.426 -1.227,-0.426 -0.386,0 -0.703,0.106 -0.945,0.312 -0.242,0.208 -0.367,0.528 -0.375,0.958 v 2.902 h -0.949 v 0.652 h 0.949 v 1.137 l 0.762,0.207 V 4.398 h 1.754 V 3.746 H -1.785 V 0.973 c 0,-0.227 0.062,-0.399 0.191,-0.512 0.129,-0.117 0.305,-0.176 0.52,-0.176 0.304,0 0.574,0.113 0.804,0.348 z" /></g><g
           transform="translate(120.6445,23.8242)"
           id="g120"><path
             id="path122"
             style="fill:#010101;fill-opacity:1;fill-rule:nonzero;stroke:none"
             d="m 0,0 -1.652,-4.73 h -0.762 l -1.34,3.765 -1.262,-3.765 H -5.777 L -7.43,0 h 0.849 L -5.387,-3.852 -4.098,0 h 0.762 L -2.043,-3.852 -0.848,0 Z" /></g><g
           transform="translate(122.7188,22.7852)"
           id="g124"><path
             id="path126"
             style="fill:#010101;fill-opacity:1;fill-rule:nonzero;stroke:none"
             d="m 0,0 c -0.27,-0.324 -0.405,-0.766 -0.405,-1.324 0,-0.563 0.135,-1.004 0.405,-1.324 0.273,-0.321 0.648,-0.485 1.133,-0.485 0.48,0 0.855,0.164 1.129,0.485 0.273,0.32 0.41,0.761 0.41,1.324 0,0.558 -0.137,1 -0.41,1.324 C 1.988,0.32 1.613,0.48 1.133,0.48 0.648,0.48 0.273,0.32 0,0 M 2.816,0.48 C 3.227,0.047 3.43,-0.555 3.43,-1.324 3.43,-2.094 3.227,-2.695 2.816,-3.133 2.41,-3.566 1.848,-3.785 1.133,-3.785 c -0.719,0 -1.278,0.219 -1.688,0.652 -0.41,0.438 -0.613,1.039 -0.613,1.809 0,0.769 0.203,1.371 0.613,1.804 0.41,0.438 0.969,0.653 1.688,0.653 0.715,0 1.277,-0.215 1.683,-0.653" /></g><g
           transform="translate(130.4609,23.8242)"
           id="g128"><path
             id="path130"
             style="fill:#010101;fill-opacity:1;fill-rule:nonzero;stroke:none"
             d="m 0,0 -0.152,-0.738 c -0.157,0.082 -0.356,0.125 -0.602,0.125 -0.203,0 -0.398,-0.059 -0.594,-0.176 C -1.539,-0.906 -1.699,-1.082 -1.82,-1.32 -1.945,-1.555 -2.008,-1.84 -2.008,-2.176 V -4.73 H -2.766 V 0 h 0.619 l 0.1,-0.777 c 0.27,0.582 0.775,0.871 1.525,0.871 C -0.297,0.094 -0.121,0.062 0,0" /></g><g
           transform="translate(133.4805,21.4297)"
           id="g132"><path
             id="path134"
             style="fill:#010101;fill-opacity:1;fill-rule:nonzero;stroke:none"
             d="M 0,0 -1.004,-1 V -2.336 H -1.766 V 4.57 h 0.762 v -4.625 l 2.457,2.45 H 2.406 L 0.555,0.551 2.52,-2.336 H 1.598 Z" /></g><g
           transform="translate(77,39.9731)"
           id="g136"><path
             id="path138"
             style="fill:#010101;fill-opacity:1;fill-rule:nonzero;stroke:none"
             d="m 0,0 v -2.973 c 0,-0.551 -0.449,-1 -1,-1 h -19 c -0.551,0 -1,0.449 -1,1 v 29.992 c 0,0.551 0.445,1 1,1 l 18,0.008 c 0.551,0 1,-0.449 1,-1 v -3.004 c 0,-0.551 -0.449,-1 -1,-1 h -14 v -8.98 h 11 c 0.551,0 1,-0.446 1,-1 v -3.004 c 0,-0.551 -0.449,-1 -1,-1 H -16 V 1.004 h 15 c 0.551,0 1,-0.45 1,-1.004" /></g><g
           transform="translate(116,36)"
           id="g140"><path
             id="path142"
             style="fill:#010101;fill-opacity:1;fill-rule:nonzero;stroke:none"
             d="m 0,0 h -2.961 c -0.551,0 -1,0.445 -1,1 L -4,31 c 0,0.551 0.445,1 1,1 H 1.402 C 1.77,32 2.109,31.801 2.281,31.477 L 15,8.004 V 31 c 0,0.551 0.445,1 1,1 h 3 c 0.551,0 1,-0.449 1,-1 V 1.027 c 0,-0.55 -0.449,-1 -1,-1 h -4.418 c -0.359,0 -0.691,0.196 -0.871,0.508 L 1,23.008 V 1 C 1,0.449 0.551,0 0,0" /></g><g
           transform="translate(31,71)"
           id="g144"><path
             id="path146"
             style="fill:#81bb27;fill-opacity:1;fill-rule:nonzero;stroke:none"
             d="M 0,0 V -11.762 L -1.34,-15 H -4.66 L -6,-11.762 V 0 c 0,0.551 0.449,1 1,1 h 4 C -0.449,1 0,0.551 0,0" /></g><g
           transform="translate(16.707,67.312)"
           id="g148"><path
             id="path150"
             style="fill:#009fe3;fill-opacity:1;fill-rule:nonzero;stroke:none"
             d="m 0,0 8.297,-8.07 1.34,-3.238 -2.348,-2.348 -3.238,1.34 -8.07,8.297 c -0.379,0.391 -0.375,1.019 0.011,1.406 l 2.602,2.602 C -1.019,0.375 -0.391,0.379 0,0" /></g><g
           transform="translate(9,55)"
           id="g152"><path
             id="path154"
             style="fill:#e6007e;fill-opacity:1;fill-rule:nonzero;stroke:none"
             d="M 0,0 H 11.762 L 15,-1.34 V -4.66 L 11.762,-6 H 0 c -0.551,0 -1,0.449 -1,1 v 4 c 0,0.551 0.449,1 1,1" /></g><g
           transform="translate(12.4692,40.7109)"
           id="g156"><path
             id="path158"
             style="fill:#ee7401;fill-opacity:1;fill-rule:nonzero;stroke:none"
             d="m 0,0 8.289,8.289 3.238,1.344 2.348,-2.348 -1.34,-3.238 -8.32,-8.094 C 3.832,-4.418 3.222,-4.426 2.836,-4.062 L 0.023,-1.438 C -0.391,-1.051 -0.403,-0.399 0,0" /></g><g
           transform="translate(25,33)"
           id="g160"><path
             id="path162"
             style="fill:#009fe3;fill-opacity:1;fill-rule:nonzero;stroke:none"
             d="M 0,0 V 11.762 L 1.34,15 H 4.66 L 6,11.762 V 0 C 6,-0.551 5.551,-1 5,-1 H 1 C 0.449,-1 0,-0.551 0,0" /></g><g
           transform="translate(39.293,36.6865)"
           id="g164"><path
             id="path166"
             style="fill:#81bb27;fill-opacity:1;fill-rule:nonzero;stroke:none"
             d="m 0,0 -8.297,8.071 -1.34,3.239 2.348,2.348 3.238,-1.341 L 4.02,4.021 C 4.398,3.629 4.395,3 4.008,2.614 L 1.406,0.013 C 1.02,-0.375 0.391,-0.378 0,0" /></g><g
           transform="translate(47,49)"
           id="g168"><path
             id="path170"
             style="fill:#ee7401;fill-opacity:1;fill-rule:nonzero;stroke:none"
             d="M 0,0 H -11.762 L -15,1.34 V 4.66 L -11.762,6 H 0 C 0.551,6 1,5.551 1,5 V 1 C 1,0.449 0.551,0 0,0" /></g><g
           transform="translate(43.313,63.293)"
           id="g172"><path
             id="path174"
             style="fill:#e6007e;fill-opacity:1;fill-rule:nonzero;stroke:none"
             d="m 0,0 -8.071,-8.297 -3.238,-1.34 -2.348,2.348 1.34,3.238 8.297,8.07 C -3.629,4.398 -3,4.394 -2.614,4.008 L -0.012,1.406 C 0.375,1.019 0.378,0.391 0,0" /></g><g
           transform="translate(106.0859,44.6992)"
           id="g176"><path
             id="path178"
             style="fill:#010101;fill-opacity:1;fill-rule:nonzero;stroke:none"
             d="m 0,0 c 0,-1.859 -0.516,-3.508 -1.522,-4.929 -0.998,-1.399 -2.427,-2.501 -4.259,-3.27 -1.801,-0.762 -3.907,-1.149 -6.266,-1.149 -3.082,0 -5.769,0.637 -7.965,1.899 -1.281,0.742 -2.449,1.812 -3.398,2.918 -0.383,0.441 -0.309,1.109 0.156,1.457 l 2.324,1.742 c 0.453,0.34 1.086,0.231 1.418,-0.226 0.524,-0.719 1.094,-1.301 1.887,-1.813 1.488,-0.957 3.402,-1.449 5.668,-1.449 2.246,0 4.039,0.422 5.34,1.262 1.25,0.8 1.851,1.91 1.851,3.367 0,1.211 -0.523,2.16 -1.589,2.883 -1.137,0.769 -3.235,1.437 -6.235,1.988 -0.535,0.101 -1.047,0.199 -1.531,0.312 -3.281,0.719 -5.629,1.668 -7.151,2.899 -1.771,1.441 -2.677,3.469 -2.677,6.039 0,1.75 0.48,3.391 1.437,4.879 0.95,1.48 2.328,2.672 4.09,3.543 1.754,0.859 3.809,1.301 6.113,1.301 4.954,0 9.162,-1.84 11.692,-5.512 0.312,-0.453 0.23,-1.067 -0.207,-1.395 l -2.36,-1.769 c -0.468,-0.352 -1.125,-0.215 -1.445,0.273 -0.871,1.336 -1.848,2.008 -2.793,2.66 -1.16,0.809 -2.793,1.211 -4.848,1.211 -2.164,0 -3.886,-0.461 -5.105,-1.379 -1.187,-0.902 -1.762,-2.011 -1.762,-3.39 0,-0.903 0.211,-1.621 0.664,-2.192 0.453,-0.578 1.25,-1.109 2.348,-1.558 1.148,-0.473 2.781,-0.891 4.855,-1.262 0.551,-0.098 1.086,-0.199 1.59,-0.32 C -6.445,8.332 -4.141,7.371 -2.641,6.121 -0.887,4.653 0,2.59 0,0" /></g></g></g></g></svg>